DanPadLab - Doing robust nls regression in R
…
Residual standard error: 0.9524 on 8 degrees of freedom

Number of iterations to convergence: 19 
Achieved convergence tolerance: 1.49e-08

# look at output object
select(fits, curve_id, data, fit)

Adding missing grouping variables: `flux`, `growth.temp`, `process`

# A tibble: 60 × 6
# Groups:   flux, growth.temp, process, curve_id [60]
   flux        growth.temp process     curve_id data              fit   
   <chr>             <dbl> <chr>          <dbl> <list>            <list>
 1 respiration          20 acclimation        1 <tibble [12 × 3]> <nls> 
 2 respiration          20 acclimation        2 <tibble [12 × 3]> <nls> 
 3 respiration          23 acclimation        3 <tibble [12 × 3]> <nls> 
 4 respiration          27 acclimation        4 <tibble [9 × 3]>  <nls> 
 5 respiration          27 acclimation        5 <tibble [12 × 3]> <nls> 
 6 respiration          30 acclimation        6 <tibble [12 × 3]> <nls> 
 7 respiration          30 acclimation        7 <tibble [12 × 3]> <nls> 
 8 respiration          33 acclimation        8 <tibble [10 × 3]> <nls> 
 9 respiration          33 acclimation        9 <tibble [8 × 3]>  <nls> 
10 respiration          20 acclimation       10 <tibble [10 × 3]> <nls> 
# … with 50 more rows
…
# get predictions
preds <- fits %>%
  mutate(., preds = map(fit, augment)) %>%
  unnest(preds)

Looking at info allows us to see if all the models converged.

ungroup(info) %>% select(., curve_id, logLik, AIC, BIC, deviance, df.residual)

# A tibble: 60 × 6
   curve_id  logLik   AIC   BIC deviance df.residual
      <dbl>   <dbl> <dbl> <dbl>    <dbl>       <int>
 1        1 -14.0   38.0  40.4     7.26            8
 2        2  -1.20  12.4  14.8     0.858           8
 3        3  -7.39  24.8  27.2     2.41            8
 4        4  -0.523 11.0  12.0     0.592           5
 5        5 -10.8   31.7  34.1     4.29            8
 6        6  -8.52  27.0  29.5     2.91            8
 7        7  -1.29  12.6  15.0     0.871           8
 8        8 -13.4   36.7  38.2     8.48            6
 9        9   1.82   6.36  6.76    0.297           4
10       10  -1.27  12.5  14.1     0.755           6
# … with 50 more rows
…
